version="1.4"
tags={
	"Alternative History"
	"Character Interactions"
	"Culture"
	"Decisions"
	"Events"
	"Utilities"
	"Graphics"
	"Warfare"
	"Religion"
}
name="PDXCON"
supported_version="1.7.*"
path="C:/Users/Flint/Documents/Paradox Interactive/Crusader Kings III/mod/PDXCON"