﻿animations_props = {
	usage = none

	chancellor_fp2_prop = {
		dna_modifiers = {
			accessory = {
				mode = add
				gene = props
				template = fp2_iberian_muslim_scroll
				value = 1.0
			}
		}
	}

	chancellor_fp1_prop = {
		dna_modifiers = {
			accessory = {
				mode = add
				gene = props
				template = fp1_rune_tablet_01
				value = 1.0
			}
		}
	}

	chancellor_prop = {
		dna_modifiers = {
			accessory = {
				mode = add
				gene = props
				template = chancellor_scrolls
				value = 1.0
			}
		}	
	}

	marshal_fp2_muslim_prop = {
		dna_modifiers = {
			accessory = {
				mode = add
				gene = props
				template = fp2_iberian_muslim_sword
				value = 1.0
			}
		}
	}

	marshal_fp2_christian_prop = {
		dna_modifiers = {
			accessory = {
				mode = add
				gene = props
				template = fp2_iberian_christian_sword
				value = 1.0
			}
		}
	}

	marshal_fp1_prop = {
		dna_modifiers = {
			accessory = {
				mode = add
				gene = props
				template = fp1_marshal_sword
				value = 1.0
			}
		}
	}

	marshal_prop = {
		dna_modifiers = {
			accessory = {
				mode = add
				gene = props
				template = marshal_swords
				value = 1.0
			}
		}	
	}

	spymaster_fp2_prop = {
		dna_modifiers = {
			accessory = {
				mode = add
				gene = props
				template = fp2_iberian_muslim_dagger
				value = 1.0
			}
		}
	}

	spymaster_fp1_prop = {
		dna_modifiers = {
			accessory = {
				mode = add
				gene = props
				template = fp1_spymasters_dagger
				value = 1.0
			}
		}	
	}

	spymaster_prop = {
		dna_modifiers = {
			accessory = {
				mode = add
				gene = props
				template = spymaster_daggers
				value = 1.0
			}
		}	
	}

	spymaster_mena_prop = {
		dna_modifiers = {
			accessory = {
				mode = add
				gene = props
				template = spymaster_daggers_mena
				value = 1.0
			}
		}	
	}

	spymaster_indian_prop = {
		dna_modifiers = {
			accessory = {
				mode = add
				gene = props
				template = spymaster_daggers_indian
				value = 1.0
			}
		}	
	}

	steward_fp2_prop = {
		dna_modifiers = {
			accessory = {
				mode = add
				gene = props
				template = fp2_steward_pouch
				value = 1.0
			}
		}
	}

	steward_prop = {
		dna_modifiers = {
			accessory = {
				mode = add
				gene = props
				template = steward_pouches
				value = 1.0
			}
		}	
	}

	fp2_chess_piece_prop_left_hand = {
		dna_modifiers = {
			accessory = {
				mode = add
				gene = props
				template = fp2_chess_piece_left_hand
				value = 1.0
			}
		}
	}

	fp2_chess_piece_prop_right_hand = {
		dna_modifiers = {
			accessory = {
				mode = add
				gene = props
				template = fp2_chess_piece_right_hand
				value = 1.0
			}
		}
	}

	arrest_prop = {
		dna_modifiers = {
			accessory = {
				mode = add
				gene = props
				template = prison_shackles
				value = 1.0
			}
		}	
	}

	dungeon_props = {
		dna_modifiers = {
			accessory = {
				mode = add
				gene = props
				template = prison_shackles
				value = 1.0
			}
		}	
	}

	newborn_prop = {
		dna_modifiers = {
			accessory = {
				mode = add
				gene = props
				template = swaddled_baby
				value = 1.0
			}
		}	
	}

	messenger_prop = {
		dna_modifiers = {
			accessory = {
				mode = add
				gene = props
				template = messenger_scroll
				value = 1.0
			}
		}	
	}

	# Props with scripted appearances
	artisan_spear_prop_left_hand = {
		dna_modifiers = {
			accessory = {
				mode = add
				gene = props
				template = ep1_artisan_spear_left_hand
				value = 1.0
			}
		}	
	}

	artisan_spear_prop_right_hand = {
		dna_modifiers = {
			accessory = {
				mode = add
				gene = props
				template = ep1_artisan_spear_right_hand
				value = 1.0
			}
		}	
	}
	
	artisan_mena_spear_prop_left_hand = {
		dna_modifiers = {
			accessory = {
				mode = add
				gene = props
				template = ep1_mena_artisan_spear_left_hand
				value = 1.0
			}
		}	
	}

	artisan_mena_spear_prop_right_hand = {
		dna_modifiers = {
			accessory = {
				mode = add
				gene = props
				template = ep1_mena_artisan_spear_right_hand
				value = 1.0
			}
		}	
	}
	
	artisan_african_spear_prop_left_hand = {
		dna_modifiers = {
			accessory = {
				mode = add
				gene = props
				template = ep1_african_artisan_spear_left_hand
				value = 1.0
			}
		}	
	}

	artisan_african_spear_prop_right_hand = {
		dna_modifiers = {
			accessory = {
				mode = add
				gene = props
				template = ep1_african_artisan_spear_right_hand
				value = 1.0
			}
		}	
	}
	
	artisan_indian_spear_prop_left_hand = {
		dna_modifiers = {
			accessory = {
				mode = add
				gene = props
				template = ep1_indian_artisan_spear_left_hand
				value = 1.0
			}
		}	
	}

	artisan_indian_spear_prop_right_hand = {
		dna_modifiers = {
			accessory = {
				mode = add
				gene = props
				template = ep1_indian_artisan_spear_right_hand
				value = 1.0
			}
		}	
	}

	artisan_sword_mena_prop = {
		dna_modifiers = {
			accessory = {
				mode = add
				gene = props
				template = ep1_artisan_sword_mena
				value = 1.0
			}
		}	
	}

	artisan_sword_indian_prop = {
		dna_modifiers = {
			accessory = {
				mode = add
				gene = props
				template = ep1_artisan_sword_indian
				value = 1.0
			}
		}	
	}

	artisan_sword_byzantine_prop = {
		dna_modifiers = {
			accessory = {
				mode = add
				gene = props
				template = ep1_artisan_sword_byzantine
				value = 1.0
			}
		}	
	}

	artisan_sword_steppe_prop = {
		dna_modifiers = {
			accessory = {
				mode = add
				gene = props
				template = ep1_artisan_sword_steppe
				value = 1.0
			}
		}	
	}

	artisan_axe_prop = {
		dna_modifiers = {
			accessory = {
				mode = add
				gene = props
				template = ep1_artisan_axe
				value = 1.0
			}
		}	
	}

	artisan_axe_mena_prop = {
		dna_modifiers = {
			accessory = {
				mode = add
				gene = props
				template = ep1_artisan_axe_mena
				value = 1.0
			}
		}	
	}

	artisan_axe_northern_pagan_prop = {
		dna_modifiers = {
			accessory = {
				mode = add
				gene = props
				template = ep1_artisan_axe_northern_pagan
				value = 1.0
			}
		}	
	}

	artisan_axe_indian_prop = {
		dna_modifiers = {
			accessory = {
				mode = add
				gene = props
				template = ep1_artisan_axe_indian
				value = 1.0
			}
		}	
	}

	artisan_mace_african_prop = {
		dna_modifiers = {
			accessory = {
				mode = add
				gene = props
				template = ep1_artisan_mace_african
				value = 1.0
			}
		}	
	}

	artisan_mace_western_prop = {
		dna_modifiers = {
			accessory = {
				mode = add
				gene = props
				template = ep1_artisan_mace_western
				value = 1.0
			}
		}	
	}

	# Props with overrides for equipped artifacts
	artifact_axe_equipped_prop = {
		dna_modifiers = {
			accessory = {
				mode = add
				gene = props
				template = ep1_artifact_axe_equipped
				value = 1.0
			}
		}	
	}

	artifact_mace_equipped_prop = {
		dna_modifiers = {
			accessory = {
				mode = add
				gene = props
				template = ep1_artifact_mace_equipped
				value = 1.0
			}
		}	
	}

	artifact_sword_equipped_prop = {
		dna_modifiers = {
			accessory = {
				mode = add
				gene = props
				template = ep1_artifact_sword_equipped
				value = 1.0
			}
		}	
	}

	artifact_dagger_equipped_prop = {
		dna_modifiers = {
			accessory = {
				mode = add
				gene = props
				template = ep1_artifact_dagger_equipped
				value = 1.0
			}
		}	
	}

	artifact_spear_equipped_prop = {
		dna_modifiers = {
			accessory = {
				mode = add
				gene = props
				template = ep1_artifact_spear_equipped
				value = 1.0
			}
		}	
	}
	
	
	
	
	ep1_tool_quill_attachment = {
		dna_modifiers = {
			accessory = {
				mode = add
				gene = props
				template = ep1_tool_quill
				value = 1.0
			}
		}	
	}
	
	ep1_mena_book_big_attachment = {
		dna_modifiers = {
		
			accessory = {
				mode = add
				gene = props
				template = ep1_tool_quill
				value = 1.0
			}
			
			accessory = {
				mode = add
				gene = props_2
				template = ep1_mena_book_big
				value = 1.0
			}
		}	
	}
	
	ep1_western_book_big_attachment = {
		dna_modifiers = {
			accessory = {
				mode = add
				gene = props
				template = ep1_western_book_big
				value = 1.0
			}
		}	
	}
	
	artifact_hammer_equipped_prop = {
		dna_modifiers = {
			accessory = {
				mode = add
				gene = props
				template = ep1_artifact_hammer_equipped
				value = 1.0
			}
		}	
	}

	lantern = {
		dna_modifiers = {
			accessory = {
				mode = add
				gene = props
				template = bp1_lantern
				value = 1.0
			}
		}	
	}

	tankard = {
		dna_modifiers = {
			accessory = {
				mode = add
				gene = props
				template = bp1_tankard
				value = 1.0
			}
		}	
	}

	goblet = {
		dna_modifiers = {
			accessory = {
				mode = add
				gene = props
				template = bp1_goblet
				value = 1.0
			}
		}	
	}

	PDXCON_tommy_gun_prop = {
		dna_modifiers = {
			accessory = {
				mode = add
				gene = props
				template = PDXCON_tommy_gun
				value = 1.0
			}
		}	
	}

}
